{
  "user": [
    {
      "id": 1,
      "name": "Miske 55",
      "password": "5",
      "gmail": "miske@gmail.com",
      "userPic": "https://scontent.fbeg10-1.fna.fbcdn.net/v/t1.0-9/10928209_1123065471053338_5108584253487911915_n.jpg?_nc_cat=107&_nc_oc=AQmB7BGdvkvF4wrpf8hOJs8YGQBr6pV1yauNgYjFEf_C0xEX6SCCrXBBWWT5yv1GPqw&_nc_ht=scontent.fbeg10-1.fna&oh=6e8cd91cf9ea27e6ef9284c7256aef66&oe=5DD706C5",
      "phone": "064948473",
      "job": "student",
      "relationship": "nemam"
    },
    {
      "id": 3,
      "name": "Ziva",
      "password": "1111",
      "gmail": "zi",
      "userPic": "https://scontent.fbeg1-1.fna.fbcdn.net/v/t1.0-9/293626_561110557251506_2128711687_n.jpg?_nc_cat=111&_nc_oc=AQmYMNDlU5T2GgSdATOJ9yUTkDzHFk9zYbHj1IZrxc9ZVNUr23Z0OPGcDPL_3YEw2Yk&_nc_ht=scontent.fbeg1-1.fna&oh=60b3916da12e9b6a8acc0bd17dcab22d&oe=5DE3256D",
      "phone": "0645957879",
      "job": "-",
      "relationship": "-"
    }
  ],
  "posts": [
    {
      "postTxt": "sta da radim sad ",
      "userId": 1,
      "picUrl": "https://scontent.fbeg10-1.fna.fbcdn.net/v/t1.0-9/10928209_1123065471053338_5108584253487911915_n.jpg?_nc_cat=107&_nc_oc=AQmB7BGdvkvF4wrpf8hOJs8YGQBr6pV1yauNgYjFEf_C0xEX6SCCrXBBWWT5yv1GPqw&_nc_ht=scontent.fbeg10-1.fna&oh=6e8cd91cf9ea27e6ef9284c7256aef66&oe=5DD706C5",
      "postDay": 28,
      "postMonth": 7,
      "postYear": 2019,
      "id": 9
    },
    {
      "postTxt": "pist",
      "userId": 1,
      "picUrl": "",
      "postDay": 24,
      "postMonth": 8,
      "postYear": 2019,
      "id": 10
    }
  ],
  "messages": [
    {
      "messageIndex": 13,
      "myId": 1,
      "frendId": 3,
      "message": "cao",
      "sender": 1,
      "messageDay": 24,
      "messageMonth": 8,
      "messageYear": 2019,
      "messageTime": 1454,
      "id": 1
    }
  ],
  "likes": [],
  "frends": [
    {
      "myId": 1,
      "frendId": 3,
      "id": 1
    },
    {
      "myId": 3,
      "frendId": 1,
      "id": 2
    }
  ]
}